{
  "openapi": "3.0.0",
  "info": {
    "title": "RentalX Documentation",
    "description": "This is an API Rent",
    "version": "1.0.0",
    "contact": {
      "email": "paulohfcmendes@gmail.com"
    }
  },
  "paths": {
    "/categories": {
      "post": {
        "tags": ["Category"],
        "summary": "Create a category",
        "description": "Create a new category",
        "requestBody": {
          "content": {
            "application/json": {
              "schema": {
                "type": "object",
                "properties": {
                  "name": {
                    "type": "string"
                  },
                  "description": {
                    "type": "string"
                  }
                },
                "example": {
                  "name": "category name sample",
                  "description": "Category description sample"
                }
              }
            }
          }
        },
        "responses": {
          "201": {
            "description": "Created"
          },
          "500": {
            "description": "Internal Error"
          }
        }
      },
      "get": {
        "tags": ["Category"],
        "summary": "List all categories",
        "description": "List all categories",
        "responses": {
          "200": {
            "description": "Success",
            "content": {
              "application/json": {
                "schema": {
                  "type": "array",
                  "items": {
                    "type": "object",
                    "properties": {
                      "name": {
                        "type": "string"
                      },
                      "description": {
                        "type": "string"
                      }
                    }
                  }
                }
              }
            }
          }
        }
      }
    }
  }
}
